aula5/simulation/qsim/Aula5.msim.vcd
$comment
	File created using the following command:
		vcd file Aula5.msim.vcd -direction
$end
$date
	Fri Sep 10 19:12:50 2021
$end
$version
	ModelSim Version 2020.1
$end
$timescale
	1ps
$end

$scope module aula5_vhd_vec_tst $end
$var wire 1 ! CLOCK_50 $end
$var wire 1 " entradaA [7] $end
$var wire 1 # entradaA [6] $end
$var wire 1 $ entradaA [5] $end
$var wire 1 % entradaA [4] $end
$var wire 1 & entradaA [3] $end
$var wire 1 ' entradaA [2] $end
$var wire 1 ( entradaA [1] $end
$var wire 1 ) entradaA [0] $end
$var wire 1 * entradaB [7] $end
$var wire 1 + entradaB [6] $end
$var wire 1 , entradaB [5] $end
$var wire 1 - entradaB [4] $end
$var wire 1 . entradaB [3] $end
$var wire 1 / entradaB [2] $end
$var wire 1 0 entradaB [1] $end
$var wire 1 1 entradaB [0] $end
$var wire 1 2 FLAG $end
$var wire 1 3 HABILITA $end
$var wire 1 4 KEY [3] $end
$var wire 1 5 KEY [2] $end
$var wire 1 6 KEY [1] $end
$var wire 1 7 KEY [0] $end
$var wire 1 8 OPERACAO [1] $end
$var wire 1 9 OPERACAO [0] $end
$var wire 1 : SAIDA_REG_FLAG $end
$var wire 1 ; SEL_MUX_PC [1] $end
$var wire 1 < SEL_MUX_PC [0] $end
$var wire 1 = TESTE_ENDERECO_MEM [8] $end
$var wire 1 > TESTE_ENDERECO_MEM [7] $end
$var wire 1 ? TESTE_ENDERECO_MEM [6] $end
$var wire 1 @ TESTE_ENDERECO_MEM [5] $end
$var wire 1 A TESTE_ENDERECO_MEM [4] $end
$var wire 1 B TESTE_ENDERECO_MEM [3] $end
$var wire 1 C TESTE_ENDERECO_MEM [2] $end
$var wire 1 D TESTE_ENDERECO_MEM [1] $end
$var wire 1 E TESTE_ENDERECO_MEM [0] $end

$scope module i1 $end
$var wire 1 F gnd $end
$var wire 1 G vcc $end
$var wire 1 H unknown $end
$var wire 1 I devoe $end
$var wire 1 J devclrn $end
$var wire 1 K devpor $end
$var wire 1 L ww_devoe $end
$var wire 1 M ww_devclrn $end
$var wire 1 N ww_devpor $end
$var wire 1 O ww_CLOCK_50 $end
$var wire 1 P ww_KEY [3] $end
$var wire 1 Q ww_KEY [2] $end
$var wire 1 R ww_KEY [1] $end
$var wire 1 S ww_KEY [0] $end
$var wire 1 T ww_entradaA [7] $end
$var wire 1 U ww_entradaA [6] $end
$var wire 1 V ww_entradaA [5] $end
$var wire 1 W ww_entradaA [4] $end
$var wire 1 X ww_entradaA [3] $end
$var wire 1 Y ww_entradaA [2] $end
$var wire 1 Z ww_entradaA [1] $end
$var wire 1 [ ww_entradaA [0] $end
$var wire 1 \ ww_SEL_MUX_PC [1] $end
$var wire 1 ] ww_SEL_MUX_PC [0] $end
$var wire 1 ^ ww_HABILITA $end
$var wire 1 _ ww_FLAG $end
$var wire 1 ` ww_SAIDA_REG_FLAG $end
$var wire 1 a ww_OPERACAO [1] $end
$var wire 1 b ww_OPERACAO [0] $end
$var wire 1 c ww_entradaB [7] $end
$var wire 1 d ww_entradaB [6] $end
$var wire 1 e ww_entradaB [5] $end
$var wire 1 f ww_entradaB [4] $end
$var wire 1 g ww_entradaB [3] $end
$var wire 1 h ww_entradaB [2] $end
$var wire 1 i ww_entradaB [1] $end
$var wire 1 j ww_entradaB [0] $end
$var wire 1 k ww_TESTE_ENDERECO_MEM [8] $end
$var wire 1 l ww_TESTE_ENDERECO_MEM [7] $end
$var wire 1 m ww_TESTE_ENDERECO_MEM [6] $end
$var wire 1 n ww_TESTE_ENDERECO_MEM [5] $end
$var wire 1 o ww_TESTE_ENDERECO_MEM [4] $end
$var wire 1 p ww_TESTE_ENDERECO_MEM [3] $end
$var wire 1 q ww_TESTE_ENDERECO_MEM [2] $end
$var wire 1 r ww_TESTE_ENDERECO_MEM [1] $end
$var wire 1 s ww_TESTE_ENDERECO_MEM [0] $end
$var wire 1 t \CLOCK_50~input_o\ $end
$var wire 1 u \KEY[1]~input_o\ $end
$var wire 1 v \KEY[2]~input_o\ $end
$var wire 1 w \KEY[3]~input_o\ $end
$var wire 1 x \entradaA[0]~output_o\ $end
$var wire 1 y \entradaA[1]~output_o\ $end
$var wire 1 z \entradaA[2]~output_o\ $end
$var wire 1 { \entradaA[3]~output_o\ $end
$var wire 1 | \entradaA[4]~output_o\ $end
$var wire 1 } \entradaA[5]~output_o\ $end
$var wire 1 ~ \entradaA[6]~output_o\ $end
$var wire 1 !! \entradaA[7]~output_o\ $end
$var wire 1 "! \SEL_MUX_PC[0]~output_o\ $end
$var wire 1 #! \SEL_MUX_PC[1]~output_o\ $end
$var wire 1 $! \HABILITA~output_o\ $end
$var wire 1 %! \FLAG~output_o\ $end
$var wire 1 &! \SAIDA_REG_FLAG~output_o\ $end
$var wire 1 '! \OPERACAO[0]~output_o\ $end
$var wire 1 (! \OPERACAO[1]~output_o\ $end
$var wire 1 )! \entradaB[0]~output_o\ $end
$var wire 1 *! \entradaB[1]~output_o\ $end
$var wire 1 +! \entradaB[2]~output_o\ $end
$var wire 1 ,! \entradaB[3]~output_o\ $end
$var wire 1 -! \entradaB[4]~output_o\ $end
$var wire 1 .! \entradaB[5]~output_o\ $end
$var wire 1 /! \entradaB[6]~output_o\ $end
$var wire 1 0! \entradaB[7]~output_o\ $end
$var wire 1 1! \TESTE_ENDERECO_MEM[0]~output_o\ $end
$var wire 1 2! \TESTE_ENDERECO_MEM[1]~output_o\ $end
$var wire 1 3! \TESTE_ENDERECO_MEM[2]~output_o\ $end
$var wire 1 4! \TESTE_ENDERECO_MEM[3]~output_o\ $end
$var wire 1 5! \TESTE_ENDERECO_MEM[4]~output_o\ $end
$var wire 1 6! \TESTE_ENDERECO_MEM[5]~output_o\ $end
$var wire 1 7! \TESTE_ENDERECO_MEM[6]~output_o\ $end
$var wire 1 8! \TESTE_ENDERECO_MEM[7]~output_o\ $end
$var wire 1 9! \TESTE_ENDERECO_MEM[8]~output_o\ $end
$var wire 1 :! \KEY[0]~input_o\ $end
$var wire 1 ;! \ROM1|memROM~12_combout\ $end
$var wire 1 <! \ROM1|memROM~13_combout\ $end
$var wire 1 =! \somaUm|Add0~2\ $end
$var wire 1 >! \somaUm|Add0~6\ $end
$var wire 1 ?! \somaUm|Add0~9_sumout\ $end
$var wire 1 @! \ROM1|memROM~5_combout\ $end
$var wire 1 A! \ROM1|memROM~7_combout\ $end
$var wire 1 B! \Decoder|Equal1~1_combout\ $end
$var wire 1 C! \MUX4x2_PC|saida_MUX[2]~3_combout\ $end
$var wire 1 D! \ROM1|memROM~14_combout\ $end
$var wire 1 E! \ROM1|memROM~15_combout\ $end
$var wire 1 F! \somaUm|Add0~10\ $end
$var wire 1 G! \somaUm|Add0~13_sumout\ $end
$var wire 1 H! \MUX4x2_PC|saida_MUX[3]~4_combout\ $end
$var wire 1 I! \somaUm|Add0~14\ $end
$var wire 1 J! \somaUm|Add0~33_sumout\ $end
$var wire 1 K! \MUX4x2_PC|saida_MUX[4]~9_combout\ $end
$var wire 1 L! \somaUm|Add0~34\ $end
$var wire 1 M! \somaUm|Add0~29_sumout\ $end
$var wire 1 N! \MUX4x2_PC|saida_MUX[5]~8_combout\ $end
$var wire 1 O! \somaUm|Add0~30\ $end
$var wire 1 P! \somaUm|Add0~25_sumout\ $end
$var wire 1 Q! \MUX4x2_PC|saida_MUX[6]~7_combout\ $end
$var wire 1 R! \somaUm|Add0~26\ $end
$var wire 1 S! \somaUm|Add0~21_sumout\ $end
$var wire 1 T! \MUX4x2_PC|saida_MUX[7]~6_combout\ $end
$var wire 1 U! \ROM1|memROM~9_combout\ $end
$var wire 1 V! \ROM1|memROM~16_combout\ $end
$var wire 1 W! \ROM1|memROM~17_combout\ $end
$var wire 1 X! \somaUm|Add0~5_sumout\ $end
$var wire 1 Y! \MUX4x2_PC|saida_MUX[1]~2_combout\ $end
$var wire 1 Z! \ROM1|memROM~3_combout\ $end
$var wire 1 [! \ROM1|memROM~4_combout\ $end
$var wire 1 \! \ROM1|memROM~6_combout\ $end
$var wire 1 ]! \ROM1|memROM~8_combout\ $end
$var wire 1 ^! \LOGICA_DESVIO|SelMUX_ROM[1]~0_combout\ $end
$var wire 1 _! \somaUm|Add0~22\ $end
$var wire 1 `! \somaUm|Add0~17_sumout\ $end
$var wire 1 a! \ROM1|memROM~18_combout\ $end
$var wire 1 b! \MUX4x2_PC|saida_MUX[8]~5_combout\ $end
$var wire 1 c! \ROM1|memROM~1_combout\ $end
$var wire 1 d! \ROM1|memROM~2_combout\ $end
$var wire 1 e! \Decoder|Operacao~0_combout\ $end
$var wire 1 f! \MUX1|saida_MUX[5]~5_combout\ $end
$var wire 1 g! \ULA1|saida[5]~5_combout\ $end
$var wire 1 h! \Decoder|OUTPUT[5]~0_combout\ $end
$var wire 1 i! \memoriaDados|ram~161_combout\ $end
$var wire 1 j! \memoriaDados|ram~22_q\ $end
$var wire 1 k! \ROM1|memROM~10_combout\ $end
$var wire 1 l! \ROM1|memROM~11_combout\ $end
$var wire 1 m! \memoriaDados|ram~155_combout\ $end
$var wire 1 n! \memoriaDados|ram~156_combout\ $end
$var wire 1 o! \ROM1|memROM~19_combout\ $end
$var wire 1 p! \ROM1|memROM~22_combout\ $end
$var wire 1 q! \ROM1|memROM~21_combout\ $end
$var wire 1 r! \ROM1|memROM~20_combout\ $end
$var wire 1 s! \memoriaDados|ram~17_q\ $end
$var wire 1 t! \memoriaDados|ram~145_combout\ $end
$var wire 1 u! \memoriaDados|ram~146_combout\ $end
$var wire 1 v! \ULA1|Add1~34_cout\ $end
$var wire 1 w! \ULA1|Add1~22\ $end
$var wire 1 x! \ULA1|Add1~25_sumout\ $end
$var wire 1 y! \MUX1|saida_MUX[1]~1_combout\ $end
$var wire 1 z! \ULA1|saida[1]~1_combout\ $end
$var wire 1 {! \memoriaDados|ram~18_q\ $end
$var wire 1 |! \memoriaDados|ram~147_combout\ $end
$var wire 1 }! \memoriaDados|ram~148_combout\ $end
$var wire 1 ~! \ULA1|Add1~26\ $end
$var wire 1 !" \ULA1|Add1~29_sumout\ $end
$var wire 1 "" \MUX1|saida_MUX[2]~2_combout\ $end
$var wire 1 #" \ULA1|saida[2]~2_combout\ $end
$var wire 1 $" \memoriaDados|ram~19_q\ $end
$var wire 1 %" \memoriaDados|ram~149_combout\ $end
$var wire 1 &" \memoriaDados|ram~150_combout\ $end
$var wire 1 '" \ULA1|Add1~30\ $end
$var wire 1 (" \ULA1|Add1~1_sumout\ $end
$var wire 1 )" \MUX1|saida_MUX[3]~3_combout\ $end
$var wire 1 *" \ULA1|saida[3]~3_combout\ $end
$var wire 1 +" \memoriaDados|ram~20_q\ $end
$var wire 1 ," \memoriaDados|ram~151_combout\ $end
$var wire 1 -" \memoriaDados|ram~152_combout\ $end
$var wire 1 ." \ULA1|Add1~2\ $end
$var wire 1 /" \ULA1|Add1~5_sumout\ $end
$var wire 1 0" \MUX1|saida_MUX[4]~4_combout\ $end
$var wire 1 1" \ULA1|saida[4]~4_combout\ $end
$var wire 1 2" \memoriaDados|ram~21_q\ $end
$var wire 1 3" \memoriaDados|ram~153_combout\ $end
$var wire 1 4" \memoriaDados|ram~154_combout\ $end
$var wire 1 5" \ULA1|Add1~6\ $end
$var wire 1 6" \ULA1|Add1~9_sumout\ $end
$var wire 1 7" \MUX1|saida_MUX[6]~6_combout\ $end
$var wire 1 8" \ULA1|saida[6]~6_combout\ $end
$var wire 1 9" \memoriaDados|ram~23_q\ $end
$var wire 1 :" \memoriaDados|ram~157_combout\ $end
$var wire 1 ;" \memoriaDados|ram~158_combout\ $end
$var wire 1 <" \ULA1|Add1~10\ $end
$var wire 1 =" \ULA1|Add1~13_sumout\ $end
$var wire 1 >" \MUX1|saida_MUX[7]~7_combout\ $end
$var wire 1 ?" \ULA1|saida[7]~7_combout\ $end
$var wire 1 @" \memoriaDados|ram~24_q\ $end
$var wire 1 A" \memoriaDados|ram~159_combout\ $end
$var wire 1 B" \memoriaDados|ram~160_combout\ $end
$var wire 1 C" \ULA1|Add1~14\ $end
$var wire 1 D" \ULA1|Add1~17_sumout\ $end
$var wire 1 E" \FLAG_IGUAL|DOUT~0_combout\ $end
$var wire 1 F" \ULA1|Equal2~2_combout\ $end
$var wire 1 G" \FLAG_IGUAL|DOUT~1_combout\ $end
$var wire 1 H" \FLAG_IGUAL|DOUT~q\ $end
$var wire 1 I" \MUX4x2_PC|saida_MUX[7]~0_combout\ $end
$var wire 1 J" \somaUm|Add0~1_sumout\ $end
$var wire 1 K" \MUX4x2_PC|saida_MUX[0]~1_combout\ $end
$var wire 1 L" \ROM1|memROM~0_combout\ $end
$var wire 1 M" \Decoder|Equal1~0_combout\ $end
$var wire 1 N" \ULA1|Add1~21_sumout\ $end
$var wire 1 O" \MUX1|saida_MUX[0]~0_combout\ $end
$var wire 1 P" \ULA1|saida[0]~0_combout\ $end
$var wire 1 Q" \ULA1|Equal2~0_combout\ $end
$var wire 1 R" \ULA1|Equal2~1_combout\ $end
$var wire 1 S" \Decoder|OUTPUT[3]~1_combout\ $end
$var wire 1 T" \Decoder|OUTPUT[4]~2_combout\ $end
$var wire 1 U" \END_RET|DOUT\ [8] $end
$var wire 1 V" \END_RET|DOUT\ [7] $end
$var wire 1 W" \END_RET|DOUT\ [6] $end
$var wire 1 X" \END_RET|DOUT\ [5] $end
$var wire 1 Y" \END_RET|DOUT\ [4] $end
$var wire 1 Z" \END_RET|DOUT\ [3] $end
$var wire 1 [" \END_RET|DOUT\ [2] $end
$var wire 1 \" \END_RET|DOUT\ [1] $end
$var wire 1 ]" \END_RET|DOUT\ [0] $end
$var wire 1 ^" \PC|DOUT\ [8] $end
$var wire 1 _" \PC|DOUT\ [7] $end
$var wire 1 `" \PC|DOUT\ [6] $end
$var wire 1 a" \PC|DOUT\ [5] $end
$var wire 1 b" \PC|DOUT\ [4] $end
$var wire 1 c" \PC|DOUT\ [3] $end
$var wire 1 d" \PC|DOUT\ [2] $end
$var wire 1 e" \PC|DOUT\ [1] $end
$var wire 1 f" \PC|DOUT\ [0] $end
$var wire 1 g" \REG1|DOUT\ [7] $end
$var wire 1 h" \REG1|DOUT\ [6] $end
$var wire 1 i" \REG1|DOUT\ [5] $end
$var wire 1 j" \REG1|DOUT\ [4] $end
$var wire 1 k" \REG1|DOUT\ [3] $end
$var wire 1 l" \REG1|DOUT\ [2] $end
$var wire 1 m" \REG1|DOUT\ [1] $end
$var wire 1 n" \REG1|DOUT\ [0] $end
$var wire 1 o" \ROM1|ALT_INV_memROM~12_combout\ $end
$var wire 1 p" \MUX1|ALT_INV_saida_MUX[4]~4_combout\ $end
$var wire 1 q" \memoriaDados|ALT_INV_ram~146_combout\ $end
$var wire 1 r" \memoriaDados|ALT_INV_ram~154_combout\ $end
$var wire 1 s" \ROM1|ALT_INV_memROM~17_combout\ $end
$var wire 1 t" \ROM1|ALT_INV_memROM~16_combout\ $end
$var wire 1 u" \memoriaDados|ALT_INV_ram~153_combout\ $end
$var wire 1 v" \memoriaDados|ALT_INV_ram~145_combout\ $end
$var wire 1 w" \ROM1|ALT_INV_memROM~15_combout\ $end
$var wire 1 x" \ROM1|ALT_INV_memROM~14_combout\ $end
$var wire 1 y" \memoriaDados|ALT_INV_ram~17_q\ $end
$var wire 1 z" \ROM1|ALT_INV_memROM~13_combout\ $end
$var wire 1 {" \MUX1|ALT_INV_saida_MUX[0]~0_combout\ $end
$var wire 1 |" \memoriaDados|ALT_INV_ram~20_q\ $end
$var wire 1 }" \MUX1|ALT_INV_saida_MUX[2]~2_combout\ $end
$var wire 1 ~" \memoriaDados|ALT_INV_ram~150_combout\ $end
$var wire 1 !# \memoriaDados|ALT_INV_ram~19_q\ $end
$var wire 1 "# \MUX1|ALT_INV_saida_MUX[3]~3_combout\ $end
$var wire 1 ## \memoriaDados|ALT_INV_ram~152_combout\ $end
$var wire 1 $# \MUX1|ALT_INV_saida_MUX[1]~1_combout\ $end
$var wire 1 %# \memoriaDados|ALT_INV_ram~148_combout\ $end
$var wire 1 &# \memoriaDados|ALT_INV_ram~21_q\ $end
$var wire 1 '# \memoriaDados|ALT_INV_ram~147_combout\ $end
$var wire 1 (# \memoriaDados|ALT_INV_ram~151_combout\ $end
$var wire 1 )# \memoriaDados|ALT_INV_ram~18_q\ $end
$var wire 1 *# \memoriaDados|ALT_INV_ram~149_combout\ $end
$var wire 1 +# \ROM1|ALT_INV_memROM~11_combout\ $end
$var wire 1 ,# \ROM1|ALT_INV_memROM~22_combout\ $end
$var wire 1 -# \ROM1|ALT_INV_memROM~21_combout\ $end
$var wire 1 .# \ROM1|ALT_INV_memROM~20_combout\ $end
$var wire 1 /# \ROM1|ALT_INV_memROM~19_combout\ $end
$var wire 1 0# \ULA1|ALT_INV_Equal2~2_combout\ $end
$var wire 1 1# \FLAG_IGUAL|ALT_INV_DOUT~0_combout\ $end
$var wire 1 2# \END_RET|ALT_INV_DOUT\ [8] $end
$var wire 1 3# \END_RET|ALT_INV_DOUT\ [7] $end
$var wire 1 4# \END_RET|ALT_INV_DOUT\ [6] $end
$var wire 1 5# \END_RET|ALT_INV_DOUT\ [5] $end
$var wire 1 6# \END_RET|ALT_INV_DOUT\ [4] $end
$var wire 1 7# \END_RET|ALT_INV_DOUT\ [3] $end
$var wire 1 8# \END_RET|ALT_INV_DOUT\ [2] $end
$var wire 1 9# \END_RET|ALT_INV_DOUT\ [1] $end
$var wire 1 :# \END_RET|ALT_INV_DOUT\ [0] $end
$var wire 1 ;# \ROM1|ALT_INV_memROM~18_combout\ $end
$var wire 1 <# \MUX1|ALT_INV_saida_MUX[7]~7_combout\ $end
$var wire 1 =# \memoriaDados|ALT_INV_ram~160_combout\ $end
$var wire 1 ># \memoriaDados|ALT_INV_ram~159_combout\ $end
$var wire 1 ?# \memoriaDados|ALT_INV_ram~24_q\ $end
$var wire 1 @# \MUX1|ALT_INV_saida_MUX[6]~6_combout\ $end
$var wire 1 A# \memoriaDados|ALT_INV_ram~158_combout\ $end
$var wire 1 B# \memoriaDados|ALT_INV_ram~157_combout\ $end
$var wire 1 C# \memoriaDados|ALT_INV_ram~23_q\ $end
$var wire 1 D# \MUX1|ALT_INV_saida_MUX[5]~5_combout\ $end
$var wire 1 E# \memoriaDados|ALT_INV_ram~156_combout\ $end
$var wire 1 F# \memoriaDados|ALT_INV_ram~155_combout\ $end
$var wire 1 G# \memoriaDados|ALT_INV_ram~22_q\ $end
$var wire 1 H# \ROM1|ALT_INV_memROM~10_combout\ $end
$var wire 1 I# \ROM1|ALT_INV_memROM~9_combout\ $end
$var wire 1 J# \Decoder|ALT_INV_Equal1~0_combout\ $end
$var wire 1 K# \Decoder|ALT_INV_OUTPUT[3]~1_combout\ $end
$var wire 1 L# \Decoder|ALT_INV_Operacao~0_combout\ $end
$var wire 1 M# \ULA1|ALT_INV_Equal2~0_combout\ $end
$var wire 1 N# \LOGICA_DESVIO|ALT_INV_SelMUX_ROM[1]~0_combout\ $end
$var wire 1 O# \MUX4x2_PC|ALT_INV_saida_MUX[7]~0_combout\ $end
$var wire 1 P# \FLAG_IGUAL|ALT_INV_DOUT~q\ $end
$var wire 1 Q# \ROM1|ALT_INV_memROM~8_combout\ $end
$var wire 1 R# \ROM1|ALT_INV_memROM~7_combout\ $end
$var wire 1 S# \ROM1|ALT_INV_memROM~6_combout\ $end
$var wire 1 T# \ROM1|ALT_INV_memROM~5_combout\ $end
$var wire 1 U# \ROM1|ALT_INV_memROM~4_combout\ $end
$var wire 1 V# \ROM1|ALT_INV_memROM~3_combout\ $end
$var wire 1 W# \ROM1|ALT_INV_memROM~2_combout\ $end
$var wire 1 X# \ROM1|ALT_INV_memROM~1_combout\ $end
$var wire 1 Y# \PC|ALT_INV_DOUT\ [8] $end
$var wire 1 Z# \PC|ALT_INV_DOUT\ [7] $end
$var wire 1 [# \PC|ALT_INV_DOUT\ [6] $end
$var wire 1 \# \PC|ALT_INV_DOUT\ [5] $end
$var wire 1 ]# \PC|ALT_INV_DOUT\ [4] $end
$var wire 1 ^# \PC|ALT_INV_DOUT\ [3] $end
$var wire 1 _# \PC|ALT_INV_DOUT\ [2] $end
$var wire 1 `# \PC|ALT_INV_DOUT\ [1] $end
$var wire 1 a# \PC|ALT_INV_DOUT\ [0] $end
$var wire 1 b# \ROM1|ALT_INV_memROM~0_combout\ $end
$var wire 1 c# \somaUm|ALT_INV_Add0~33_sumout\ $end
$var wire 1 d# \somaUm|ALT_INV_Add0~29_sumout\ $end
$var wire 1 e# \somaUm|ALT_INV_Add0~25_sumout\ $end
$var wire 1 f# \somaUm|ALT_INV_Add0~21_sumout\ $end
$var wire 1 g# \somaUm|ALT_INV_Add0~17_sumout\ $end
$var wire 1 h# \somaUm|ALT_INV_Add0~13_sumout\ $end
$var wire 1 i# \somaUm|ALT_INV_Add0~9_sumout\ $end
$var wire 1 j# \somaUm|ALT_INV_Add0~5_sumout\ $end
$var wire 1 k# \somaUm|ALT_INV_Add0~1_sumout\ $end
$var wire 1 l# \ULA1|ALT_INV_Add1~29_sumout\ $end
$var wire 1 m# \ULA1|ALT_INV_Add1~25_sumout\ $end
$var wire 1 n# \ULA1|ALT_INV_Add1~21_sumout\ $end
$var wire 1 o# \ULA1|ALT_INV_Add1~17_sumout\ $end
$var wire 1 p# \ULA1|ALT_INV_Add1~13_sumout\ $end
$var wire 1 q# \ULA1|ALT_INV_Add1~9_sumout\ $end
$var wire 1 r# \ULA1|ALT_INV_Add1~5_sumout\ $end
$var wire 1 s# \ULA1|ALT_INV_Add1~1_sumout\ $end
$var wire 1 t# \REG1|ALT_INV_DOUT\ [7] $end
$var wire 1 u# \REG1|ALT_INV_DOUT\ [6] $end
$var wire 1 v# \REG1|ALT_INV_DOUT\ [5] $end
$var wire 1 w# \REG1|ALT_INV_DOUT\ [4] $end
$var wire 1 x# \REG1|ALT_INV_DOUT\ [3] $end
$var wire 1 y# \REG1|ALT_INV_DOUT\ [2] $end
$var wire 1 z# \REG1|ALT_INV_DOUT\ [1] $end
$var wire 1 {# \REG1|ALT_INV_DOUT\ [0] $end
$upscope $end
$upscope $end
$enddefinitions $end
#0
$dumpvars
0!
12
03
0:
0F
1G
xH
1I
1J
1K
1L
1M
1N
0O
0^
1_
0`
0t
0u
0v
0w
0x
0y
0z
0{
0|
0}
0~
0!!
1"!
0#!
0$!
1%!
0&!
1'!
1(!
0)!
0*!
0+!
0,!
0-!
0.!
0/!
00!
01!
02!
03!
04!
05!
06!
07!
08!
09!
0:!
1;!
1<!
0=!
0>!
0?!
0@!
1A!
1B!
1C!
1D!
1E!
0F!
0G!
1H!
0I!
0J!
0K!
0L!
0M!
0N!
0O!
0P!
0Q!
0R!
0S!
0T!
1U!
1V!
1W!
0X!
1Y!
0Z!
0[!
0\!
1]!
0^!
0_!
0`!
0a!
0b!
1c!
1d!
0e!
0f!
0g!
0h!
0i!
0j!
0k!
0l!
0m!
0n!
0o!
0p!
0q!
0r!
0s!
0t!
0u!
1v!
1w!
0x!
0y!
0z!
0{!
0|!
0}!
1~!
0!"
0""
0#"
0$"
0%"
0&"
1'"
0("
0)"
0*"
0+"
0,"
0-"
1."
0/"
00"
01"
02"
03"
04"
15"
06"
07"
08"
09"
0:"
0;"
1<"
0="
0>"
0?"
0@"
0A"
0B"
1C"
0D"
0E"
1F"
0G"
0H"
0I"
1J"
0K"
1L"
0M"
0N"
0O"
0P"
1Q"
1R"
0S"
1T"
0o"
1p"
1q"
1r"
0s"
0t"
1u"
1v"
0w"
0x"
1y"
0z"
1{"
1|"
1}"
1~"
1!#
1"#
1##
1$#
1%#
1&#
1'#
1(#
1)#
1*#
1+#
1,#
1-#
1.#
1/#
00#
11#
1;#
1<#
1=#
1>#
1?#
1@#
1A#
1B#
1C#
1D#
1E#
1F#
1G#
1H#
0I#
1J#
1K#
1L#
0M#
1N#
1O#
1P#
0Q#
0R#
1S#
1T#
1U#
1V#
0W#
0X#
0b#
1c#
1d#
1e#
1f#
1g#
1h#
1i#
1j#
0k#
1l#
1m#
1n#
1o#
1p#
1q#
1r#
1s#
04
05
06
07
0"
0#
0$
0%
0&
0'
0(
0)
0;
1<
18
19
0*
0+
0,
0-
0.
0/
00
01
0=
0>
0?
0@
0A
0B
0C
0D
0E
0P
0Q
0R
0S
0T
0U
0V
0W
0X
0Y
0Z
0[
0\
1]
1a
1b
0c
0d
0e
0f
0g
0h
0i
0j
0k
0l
0m
0n
0o
0p
0q
0r
0s
0U"
0V"
0W"
0X"
0Y"
0Z"
0["
0\"
0]"
0^"
0_"
0`"
0a"
0b"
0c"
0d"
0e"
0f"
0g"
0h"
0i"
0j"
0k"
0l"
0m"
0n"
12#
13#
14#
15#
16#
17#
18#
19#
1:#
1Y#
1Z#
1[#
1\#
1]#
1^#
1_#
1`#
1a#
1t#
1u#
1v#
1w#
1x#
1y#
1z#
1{#
$end
#1000
1!
17
1O
1S
1:!
1t
1d"
1c"
1e"
1]"
0:#
0`#
0^#
0_#
1?!
1G!
0;!
1X!
0A!
0D!
0V!
0L"
1b#
1t"
1x"
1R#
0j#
1o"
0h#
0i#
12!
14!
13!
0<!
1p!
0]!
0E!
1o!
0W!
1q!
0B!
0d!
1r
1p
1q
1W#
0-#
1s"
0/#
1w"
1Q#
0,#
1z"
1D
1C
1B
0C!
0H!
0Y!
1I"
0O#
1C!
1H!
1Y!
1K"
0"!
0]
0<
#2000
0!
07
16
0O
0S
1R
1u
0:!
0t
#3000
1!
17
1O
1S
1:!
1t
1f"
0a#
0J"
1=!
1@!
1A!
0R#
0T#
1k#
11!
0X!
1>!
0K"
1\!
1]!
1j#
1s
0?!
1F!
0Q#
0S#
1E
0Y!
1i#
1^!
0G!
1I!
0C!
1h#
0N#
1J!
1K"
0H!
0c#
1#!
1\
1;
#4000
0!
07
06
15
0O
0S
0R
1Q
1v
0u
0:!
0t
#5000
1!
17
1O
1S
1:!
1t
0d"
0c"
0e"
1`#
1^#
1_#
1?!
0F!
1G!
0I!
1;!
1X!
0>!
0A!
1Z!
1k!
0H#
0V#
1R#
0j#
0o"
0h#
0i#
02!
04!
03!
0?!
0J!
0G!
1<!
0p!
0]!
1[!
1l!
1r!
1h#
1c#
1i#
0r
0p
0q
0.#
0+#
0U#
1Q#
1,#
0z"
0D
0C
0B
0^!
0I"
1O#
1N#
1C!
0#!
1"!
0\
1]
0;
1<
#6000
0!
07
16
0O
0S
1R
1u
0:!
0t
#7000
1!
17
1O
1S
1:!
1t
1d"
0_#
1?!
0@!
1T#
0i#
13!
0\!
1M"
1q
0J#
1S#
1C
1e!
1h!
1I"
1N"
0w!
1!"
0'"
1""
1O"
0{"
0}"
0l#
0n#
0O#
0L#
1("
0."
1x!
0~!
1S"
1Y!
0K"
0F"
0Q"
1#"
1P"
0m#
0s#
0!"
1/"
05"
1M#
10#
0K#
1)!
1+!
1$!
0R"
0r#
1l#
0"!
16"
0<"
1j
1h
1^
0q#
0]
11
1/
13
1="
0C"
0<
0'!
0p#
0%!
1D"
0b
0o#
0_
09
02
#8000
0!
07
06
05
14
0O
0S
0R
0Q
1P
1w
0v
0u
0:!
0t
#9000
1!
17
1O
1S
1:!
1t
1e"
1l"
0f"
1n"
0{#
1a#
0y#
0`#
0X!
1>!
1!"
0;!
1J"
0=!
1a!
1i!
0k!
1L"
0N"
1w!
1n#
0b#
1H#
0;#
0k#
1o"
0l#
1j#
1x
01!
1z
12!
0x!
1~!
1X!
0>!
0?!
1F!
0Y!
0<!
1p!
1K"
0l!
0r!
1d!
0M"
1i#
0j#
1m#
1[
0s
1Y
1r
1G!
1?!
0F!
0!"
1'"
1J#
0W#
1.#
1+#
0,#
1z"
1)
1'
0E
1D
1Y!
0C!
1l#
0i#
0h#
0e!
0h!
1N"
1!"
0""
0O"
0("
1."
0G!
1H!
1C!
1Q"
1h#
1s#
1{"
1}"
0l#
0n#
1L#
0/"
15"
0M#
1g!
11"
18"
1?"
0S"
0Q"
0H!
1r#
06"
1<"
1M#
1K#
0)!
0+!
0$!
01"
1q#
0="
1C"
0j
0h
0^
0g!
1p#
01
0/
03
0D"
1'!
08"
1o#
1b
0?"
19
#10000
0!
07
16
0O
0S
1R
1u
0:!
0t
#11000
1!
17
1O
1S
1:!
1t
1s!
1$"
1f"
0a#
0!#
0y"
1t!
1%"
0J"
1=!
1A!
0Z!
0a!
0i!
0L"
1b#
1;#
1V#
0R#
1k#
0*#
0v"
11!
0X!
1>!
1u!
1&"
0K"
1]!
0[!
0d!
1j#
1s
0?!
1F!
1W#
1U#
0Q#
0~"
0q"
1E
0Y!
1i#
0N"
1O"
0!"
1""
1E"
1G!
0C!
0h#
01#
0}"
1l#
0{"
1n#
0P"
1F"
1Q"
0#"
1H!
0M#
00#
1+!
1)!
1G"
1R"
1h
1j
11
1/
1%!
1_
12
#12000
0!
07
06
15
0O
0S
0R
1Q
1v
0u
0:!
0t
